<?xml version="1.0" standalone="no"?>
<!DOCTYPE svg PUBLIC "-//W3C//DTD SVG 1.1//EN" "http://www.w3.org/Graphics/SVG/1.1/DTD/svg11.dtd" >
<svg xmlns="http://www.w3.org/2000/svg">
<metadata>Generated by IcoMoon</metadata>
<defs>
<font id="icomoon" horiz-adv-x="1024">
<font-face units-per-em="1024" ascent="960" descent="-64" />
<missing-glyph horiz-adv-x="1024" />
<glyph unicode="&#x20;" horiz-adv-x="512" d="" />
<glyph unicode="&#xe900;" glyph-name="add" d="M981.333 490.667h-426.667v426.667c0 25.6-17.067 42.667-42.667 42.667s-42.667-17.067-42.667-42.667v-426.667h-426.667c-25.6 0-42.667-17.067-42.667-42.667s17.067-42.667 42.667-42.667h426.667v-426.667c0-25.6 17.067-42.667 42.667-42.667s42.667 17.067 42.667 42.667v426.667h426.667c25.6 0 42.667 17.067 42.667 42.667s-17.067 42.667-42.667 42.667z" />
<glyph unicode="&#xe901;" glyph-name="arrow-last-page" d="M851.2 448l-384 390.4c-25.6 25.6-25.6 70.4 0 102.4 25.6 25.6 70.4 25.6 102.4 0l435.2-435.2c12.8-12.8 19.2-32 19.2-51.2s-6.4-38.4-19.2-51.2l-435.2-435.2c-25.6-25.6-70.4-25.6-102.4 0-25.6 25.6-25.6 70.4 0 102.4l384 377.6zM19.2 64c-25.6-25.6-25.6-70.4 0-102.4 25.6-25.6 70.4-25.6 102.4 0l435.2 435.2c12.8 12.8 19.2 32 19.2 51.2s-6.4 38.4-19.2 51.2l-435.2 435.2c-25.6 25.6-70.4 25.6-102.4 0-25.6-25.6-25.6-70.4 0-102.4l390.4-390.4-390.4-377.6z" />
<glyph unicode="&#xe902;" glyph-name="arrow-left" d="M224 448c0 19.2 6.4 38.4 19.2 51.2l441.6 441.6c25.6 25.6 70.4 25.6 102.4 0 25.6-25.6 25.6-70.4 0-102.4l-390.4-390.4 390.4-390.4c25.6-25.6 25.6-70.4 0-102.4-25.6-25.6-70.4-25.6-102.4 0l-441.6 441.6c-12.8 12.8-19.2 32-19.2 51.2z" />
<glyph unicode="&#xe903;" glyph-name="arrow-right" d="M787.2 396.8l-441.6-441.6c-25.6-25.6-70.4-25.6-102.4 0-25.6 25.6-25.6 70.4 0 102.4l390.4 390.4-390.4 390.4c-25.6 25.6-25.6 70.4 0 102.4 25.6 25.6 70.4 25.6 102.4 0l441.6-441.6c12.8-12.8 19.2-32 19.2-51.2s-6.4-38.4-19.2-51.2z" />
<glyph unicode="&#xe904;" glyph-name="dessert" d="M1011.2 435.2c-19.2 19.2-44.8 19.2-64 0-6.4-6.4-12.8-12.8-19.2-19.2-19.2 128-96 236.8-198.4 300.8 0 0-6.4 0-6.4 6.4-64 32-134.4 57.6-204.8 57.6s-153.6-25.6-211.2-64c0 0-6.4 0-6.4-6.4-108.8-57.6-185.6-166.4-204.8-294.4-6.4 6.4-12.8 12.8-19.2 19.2-19.2 19.2-44.8 19.2-64 0s-19.2-44.8 0-64c19.2-25.6 51.2-51.2 96-57.6l57.6-160c6.4-19.2 25.6-32 44.8-32h608c19.2 0 38.4 12.8 44.8 32l57.6 160c44.8 6.4 70.4 38.4 89.6 57.6 19.2 12.8 19.2 44.8 0 64zM294.4 601.6c6.4-6.4 19.2-12.8 32-12.8 25.6 0 44.8 19.2 44.8 44.8v12.8c32 12.8 57.6 25.6 96 25.6v-44.8c0-25.6 19.2-44.8 44.8-44.8s44.8 19.2 44.8 44.8v51.2c32-6.4 64-12.8 96-25.6v-12.8c0-25.6 19.2-44.8 44.8-44.8 12.8 0 19.2 6.4 32 12.8 51.2-44.8 83.2-102.4 102.4-166.4 0 0-6.4 6.4-6.4 6.4-25.6 25.6-57.6 57.6-128 57.6 0 0 0 0 0 0v0c-64 0-102.4-32-128-57.6-19.2-38.4-32-44.8-57.6-44.8 0 0 0 0 0 0-25.6 0-38.4 12.8-57.6 32-25.6 25.6-57.6 57.6-128 57.6 0 0 0 0 0 0v0 0 0c-64 0-102.4-32-128-57.6 0 0-6.4-6.4-6.4-6.4 19.2 64 57.6 128 102.4 172.8zM787.2 217.6h-550.4l-32 102.4c25.6 12.8 51.2 32 64 44.8 25.6 25.6 32 32 57.6 32s38.4-12.8 57.6-32c25.6-25.6 57.6-57.6 128-57.6 0 0 0 0 0 0 64 0 102.4 32 128 57.6s32 32 57.6 32v0c0 0 0 0 0 0 25.6 0 38.4-12.8 57.6-32 12.8-12.8 38.4-38.4 64-44.8l-32-102.4z" />
<glyph unicode="&#xe905;" glyph-name="down-arrow" d="M1011.6 712.8c-16.6 16.6-43.6 16.6-60.4 0l-439.2-439.2-439.2 439.2c-16.6 16.6-43.6 16.6-60.4 0s-16.6-43.6 0-60.4l469.4-469.4c16.6-16.6 43.6-16.6 60.4 0l469.4 469.4c16.6 16.8 16.6 43.8 0 60.4z" />
<glyph unicode="&#xe906;" glyph-name="first_dish" d="M979.2 243.2h-70.4c12.8 44.8 25.6 89.6 25.6 140.8 0 96-32 185.6-89.6 256 12.8 38.4 19.2 70.4 25.6 89.6l64 64h19.2c25.6 0 44.8 19.2 44.8 44.8s-19.2 44.8-38.4 44.8c-6.4 25.6-25.6 38.4-44.8 38.4-25.6 0-44.8-19.2-44.8-44.8v-19.2l-64-64c-19.2-6.4-70.4-19.2-121.6-32-57.6 32-115.2 38.4-172.8 38.4-230.4 0-416-185.6-416-416 0-44.8 6.4-96 25.6-140.8h-76.8c-25.6 0-44.8-19.2-44.8-44.8s19.2-44.8 44.8-44.8h83.2l25.6-147.2c6.4-25.6 25.6-38.4 44.8-38.4h620.8c25.6 0 44.8 19.2 44.8 38.4l25.6 147.2h83.2c25.6 0 44.8 19.2 44.8 44.8 6.4 25.6-12.8 44.8-38.4 44.8v0zM748.8 646.4c0 0-6.4 0 0 0-25.6-76.8-44.8-140.8-64-160s-38.4-25.6-64-25.6c-25.6 0-44.8 6.4-64 25.6-32 32-32 89.6 0 128 12.8 12.8 70.4 38.4 134.4 57.6 0 0 0 0 0 0 19.2 6.4 44.8 12.8 70.4 19.2-6.4-12.8-12.8-32-12.8-44.8v0zM512 710.4c6.4 0 12.8 0 12.8 0-19.2-12.8-25.6-19.2-38.4-25.6-70.4-70.4-70.4-185.6 0-256 32-32 83.2-51.2 128-51.2 51.2 0 96 19.2 128 51.2 12.8 12.8 32 38.4 57.6 102.4 19.2-44.8 32-96 32-140.8 0-51.2-12.8-96-32-140.8h-582.4c-19.2 38.4-32 83.2-32 134.4 0 179.2 147.2 326.4 326.4 326.4v0zM780.8 57.6h-537.6l-12.8 96h569.6l-19.2-96z" />
<glyph unicode="&#xe907;" glyph-name="logo_food" d="M67.673 364.299c0-11.576-10.685-17.809-32.946-17.809-4.452 0-7.123 2.671-8.014 8.014s-0.89 12.466-0.89 20.48c0 16.918 4.452 42.741 12.466 76.577 8.904 33.837 16.918 61.44 25.823 81.92-20.48 0-35.617-4.452-45.412-12.466-2.671-2.671-5.343-4.452-7.123-6.233s-3.562-2.671-5.343-2.671-2.671 0.89-4.452 3.562c-0.89 1.781-1.781 4.452-1.781 8.014 0 10.685 4.452 19.59 14.247 25.823 13.357 8.014 32.056 14.247 56.097 16.918 10.685 0.89 20.48 1.781 29.384 1.781h0.89c0.89 0 3.562-0.89 5.343-2.671 2.671-1.781 3.562-4.452 3.562-8.014s-0.89-8.014-1.781-12.466c-0.89-4.452-2.671-8.014-5.343-9.795-0.89-9.795-3.562-21.37-7.123-34.727s-8.014-27.603-11.576-42.741c-10.685-39.179-16.028-70.344-16.028-93.496zM207.471 422.177c3.562 0 4.452-4.452 4.452-14.247 0-5.343-1.781-10.685-6.233-17.809-3.562-7.123-8.904-13.357-15.137-19.59s-13.357-10.685-21.37-14.247c-8.014-3.562-15.137-5.343-22.261-5.343s-12.466 1.781-16.028 4.452c-3.562 2.671-7.123 6.233-8.904 11.576-3.562 7.123-6.233 19.59-8.014 39.179-1.781 18.699-4.452 32.946-6.233 40.070-5.343 0.89-8.904 2.671-12.466 6.233-3.562 2.671-5.343 7.123-5.343 11.576s1.781 8.014 6.233 9.795c3.562 1.781 8.014 2.671 13.357 2.671s8.904-0.89 13.357-3.562c9.795 11.576 19.59 26.713 27.603 45.412 3.562 8.904 7.123 17.809 10.685 26.713s7.123 18.699 10.685 28.494c0.89 2.671 2.671 3.562 6.233 4.452 2.671 0.89 7.123 0.89 12.466 0.89s8.904-1.781 10.685-5.343c1.781-3.562 2.671-8.904 2.671-16.918s-1.781-16.918-6.233-27.603c-3.562-9.795-8.904-20.48-15.137-29.384-13.357-20.48-27.603-35.617-45.412-45.412 2.671-6.233 5.343-14.247 7.123-21.37 1.781-8.014 3.562-15.137 5.343-22.261s3.562-12.466 6.233-16.918c1.781-4.452 4.452-7.123 8.014-7.123s7.123 1.781 11.576 6.233c4.452 3.562 8.904 8.014 13.357 12.466s8.014 8.904 11.576 12.466c2.671 2.671 5.343 4.452 7.123 4.452zM312.543 376.765c-15.137-18.699-32.946-27.603-53.426-27.603s-36.508 5.343-47.193 16.918c-10.685 11.576-15.137 25.823-15.137 41.85 0 24.042 7.123 44.522 21.37 61.44s32.946 25.823 56.097 25.823c10.685 0 18.699-1.781 25.823-4.452 11.576-4.452 16.918-8.904 16.918-13.357 0-3.562-8.014-4.452-23.151-5.343-15.137 0-28.494-6.233-39.179-16.918-10.685-11.576-16.028-25.823-16.028-42.741 0-8.904 2.671-16.918 7.123-22.261 5.343-6.233 12.466-8.904 21.37-8.904s16.918 1.781 23.151 6.233c-13.357 9.795-20.48 23.151-20.48 41.85 0 9.795 2.671 18.699 9.795 26.713s15.137 11.576 25.823 12.466c10.685 0 17.809-2.671 22.261-8.904s7.123-14.247 7.123-24.042c0-9.795-1.781-19.59-6.233-31.165h0.89c8.014 0 15.137 3.562 21.37 8.904 2.671 2.671 4.452 4.452 6.233 6.233s3.562 2.671 5.343 2.671c2.671 0 3.562-3.562 3.562-9.795 0-12.466-3.562-21.37-9.795-27.603-7.123-6.233-14.247-8.904-22.261-8.904-8.904-0.89-16.028 0-21.37 0.89zM309.871 411.492c3.562 7.123 4.452 14.247 4.452 21.37s-1.781 9.795-6.233 9.795c-1.781 0-2.671-0.89-4.452-3.562-0.89-2.671-0.89-5.343-0.89-7.123 0-8.014 1.781-15.137 7.123-20.48zM364.188 367.861c-1.781 5.343-3.562 11.576-4.452 18.699s-1.781 16.918-1.781 30.275c0 12.466 2.671 30.275 7.123 51.645h-12.466c-2.671 0-3.562 0.89-3.562 2.671 0 4.452 0 8.904 0.89 11.576s2.671 6.233 6.233 10.685h7.123c2.671 0 5.343 0 8.904 0 8.904 31.165 18.699 46.303 27.603 46.303 7.123 0 12.466-5.343 16.028-15.137 0.89-2.671 1.781-6.233 2.671-8.904l-11.576-21.37c13.357 0 21.37-0.89 24.932-0.89s5.343 0 5.343-0.89c0-0.89 0-1.781 0-3.562 0-3.562-0.89-8.014-2.671-13.357s-3.562-8.014-5.343-8.014l-28.494 1.781c-3.562-24.042-6.233-44.522-6.233-60.55s1.781-24.042 6.233-24.042c3.562 0 9.795 3.562 19.59 9.795s16.028 12.466 20.48 17.809c4.452 6.233 7.123 8.904 9.795 8.904s3.562-3.562 3.562-9.795c0-7.123-2.671-13.357-7.123-20.48s-10.685-13.357-16.918-19.59c-7.123-6.233-14.247-10.685-23.151-14.247-6.233-4.452-14.247-7.123-20.48-7.123s-10.685 1.781-14.247 4.452c-2.671 3.562-6.233 8.014-8.014 13.357zM504.877 350.052c-26.713 0-45.412 10.685-55.207 32.056-3.562 8.014-5.343 16.918-5.343 28.494s0.89 24.042 2.671 36.508c3.562 25.823 10.685 49.864 21.37 72.125 5.343 11.576 11.576 20.48 18.699 28.494 15.137 17.809 31.165 26.713 49.864 25.823 8.014 0 14.247-2.671 18.699-7.123s7.123-11.576 7.123-20.48c0-8.904-2.671-17.809-7.123-26.713-5.343-8.904-11.576-17.809-18.699-27.603-8.014-9.795-16.028-19.59-24.932-30.275s-18.699-21.37-27.603-33.837v-12.466c0-11.576 2.671-19.59 7.123-24.932s9.795-8.014 16.028-8.014c16.028 0 30.275 8.904 42.741 25.823 5.343 7.123 8.904 10.685 11.576 10.685s3.562-3.562 3.562-9.795c0-7.123-1.781-13.357-5.343-20.48s-8.014-13.357-13.357-19.59c-5.343-6.233-12.466-10.685-19.59-14.247-7.123-1.781-15.137-4.452-22.261-4.452zM520.014 512.111c3.562 5.343 7.123 9.795 8.904 14.247 2.671 4.452 3.562 8.904 3.562 13.357s-1.781 7.123-4.452 7.123c-6.233 0-14.247-7.123-22.261-21.37s-14.247-32.946-17.809-56.988c6.233 10.685 12.466 18.699 17.809 25.823 5.343 6.233 9.795 12.466 14.247 17.809zM615.29 383.889c15.137 0 29.384 6.233 42.741 18.699 5.343 4.452 8.904 8.904 12.466 12.466s5.343 6.233 7.123 6.233c2.671 0 3.562-2.671 3.562-8.014s-1.781-11.576-4.452-18.699c-2.671-7.123-7.123-13.357-14.247-20.48-16.028-16.028-38.289-24.042-66.783-24.042-22.261 0-37.398 8.904-46.303 25.823-2.671 6.233-4.452 14.247-4.452 25.823s1.781 23.151 6.233 34.727c4.452 12.466 9.795 22.261 16.918 31.165s15.137 16.028 24.042 20.48c8.904 5.343 18.699 7.123 29.384 7.123s17.809-2.671 24.042-8.014c5.343-5.343 8.014-12.466 8.014-21.37s-1.781-16.028-6.233-21.37c-4.452-5.343-8.904-9.795-16.028-14.247-6.233-3.562-13.357-7.123-21.37-9.795s-15.137-6.233-23.151-9.795v-7.123c0-7.123 2.671-12.466 8.904-15.137s12.466-4.452 19.59-4.452zM609.948 468.48c-9.795 0-16.918-12.466-20.48-36.508 3.562 2.671 8.014 5.343 11.576 7.123s6.233 4.452 8.904 6.233 8.904 9.795 8.904 15.137c0 6.233-2.671 8.014-8.904 8.014zM680.292 367.861c-1.781 5.343-3.562 11.576-4.452 18.699s-1.781 16.918-1.781 30.275c0 12.466 2.671 30.275 7.123 51.645h-13.357c-2.671 0-3.562 0.89-3.562 2.671 0 4.452 0 8.904 0.89 11.576s2.671 6.233 6.233 10.685h7.123c2.671 0 5.343 0 8.904 0 8.904 31.165 18.699 46.303 27.603 46.303 7.123 0 12.466-5.343 16.028-15.137 0.89-2.671 1.781-6.233 2.671-8.904l-12.466-21.37c13.357 0 21.37-0.89 24.932-0.89s5.343 0 5.343-0.89c0-0.89 0-1.781 0-3.562 0-3.562-0.89-8.014-2.671-13.357s-3.562-8.014-5.343-8.014l-28.494 1.781c-3.562-24.042-6.233-44.522-6.233-60.55s1.781-24.042 6.233-24.042c3.562 0 9.795 3.562 19.59 9.795s16.028 12.466 20.48 17.809c4.452 6.233 7.123 8.904 9.795 8.904s3.562-3.562 3.562-9.795c0-7.123-2.671-13.357-7.123-20.48s-10.685-13.357-16.918-19.59c-7.123-6.233-14.247-10.685-23.151-14.247-8.014-3.562-16.028-5.343-22.261-5.343s-10.685 1.781-14.247 4.452c0 1.781-2.671 6.233-4.452 11.576zM930.504 422.177c3.562 0 5.343-4.452 5.343-14.247 0-5.343-1.781-10.685-6.233-17.809-3.562-7.123-8.904-13.357-15.137-19.59s-13.357-10.685-21.37-14.247c-8.014-3.562-15.137-5.343-22.261-5.343-9.795 0-16.918 8.904-20.48 27.603-5.343-8.904-11.576-16.028-19.59-21.37s-18.699-8.014-32.056-8.014c-13.357 0-24.042 4.452-32.056 13.357s-12.466 19.59-11.576 32.056c0 33.837 10.685 60.55 32.056 80.139 8.904 8.014 17.809 13.357 24.932 16.028 8.014 2.671 16.028 3.562 24.932 3.562s16.028-1.781 21.37-4.452c2.671 6.233 5.343 8.904 8.904 8.904 6.233 0 12.466-2.671 18.699-8.904s8.904-11.576 8.904-16.918c-2.671-6.233-6.233-14.247-11.576-24.042-1.781-8.904-2.671-22.261-2.671-39.179s1.781-24.932 6.233-24.932c5.343 0 16.918 10.685 35.617 31.165 4.452 4.452 7.123 6.233 8.014 6.233zM796.939 404.369c0-15.137 5.343-23.151 16.028-23.151 11.576 0 21.37 7.123 28.494 19.59 2.671 4.452 4.452 9.795 6.233 16.028 0 22.261 1.781 41.85 5.343 57.878-15.137-3.562-28.494-10.685-40.070-23.151-9.795-12.466-16.028-28.494-16.028-47.193zM986.602 496.974c12.466 0 22.261-2.671 28.494-7.123 6.233-5.343 8.904-12.466 8.904-22.261s-2.671-17.809-8.014-24.042c-5.343-7.123-11.576-11.576-19.59-14.247 5.343-6.233 10.685-12.466 15.137-18.699s6.233-12.466 6.233-19.59c0-13.357-5.343-24.042-15.137-31.165s-24.042-10.685-41.85-10.685c-17.809 0-31.165 3.562-40.070 11.576-8.904 7.123-13.357 16.028-13.357 25.823s1.781 17.809 6.233 25.823c4.452 8.014 8.904 11.576 14.247 11.576 2.671 0 5.343-0.89 6.233-3.562s3.562-8.904 7.123-19.59c0.89-4.452 3.562-8.014 6.233-11.576 7.123-8.014 17.809-12.466 32.946-12.466-2.671 8.014-6.233 14.247-10.685 19.59-5.343 5.343-9.795 10.685-15.137 16.028s-8.904 10.685-13.357 16.918c-3.562 6.233-5.343 12.466-5.343 20.48 0 14.247 5.343 25.823 15.137 35.617 11.576 7.123 23.151 11.576 35.617 11.576zM984.821 440.877c7.123 8.904 11.576 15.137 11.576 20.48 0 2.671-0.89 4.452-2.671 6.233s-3.562 2.671-7.123 2.671c-2.671 0-6.233 0-8.904-0.89s-5.343-1.781-6.233-1.781c0-7.123 4.452-16.028 13.357-26.713zM81.92 163.061h-10.685v92.605c2.671 0.89 5.343 1.781 8.014 2.671s6.233 0.89 8.904 0.89c4.452 0 8.904-0.89 11.576-2.671 3.562-1.781 6.233-4.452 8.014-7.123 1.781-3.562 3.562-7.123 4.452-11.576s1.781-9.795 1.781-16.028c0-11.576-1.781-20.48-5.343-26.713s-9.795-9.795-17.809-9.795c-1.781 0-3.562 0-5.343 0.89-1.781 0-2.671 0.89-4.452 1.781v-24.932zM81.92 198.678c2.671-1.781 5.343-1.781 8.014-1.781 1.781 0 3.562 0.89 5.343 1.781s2.671 2.671 4.452 4.452c0.89 1.781 1.781 4.452 2.671 8.014s0.89 8.014 0.89 12.466c0 9.795-0.89 16.918-3.562 20.48-2.671 4.452-6.233 6.233-10.685 6.233-0.89 0-1.781 0-2.671 0s-1.781 0-3.562-0.89v-50.755zM137.127 219.158c0-3.562 0-6.233 0.89-8.904s0.89-5.343 2.671-7.123c0.89-1.781 2.671-3.562 4.452-4.452s4.452-1.781 7.123-1.781c2.671 0 4.452 0 7.123 0.89 1.781 0.89 3.562 1.781 4.452 1.781l1.781-8.904c-0.89-0.89-2.671-1.781-5.343-2.671s-5.343-1.781-8.904-1.781c-4.452 0-8.904 0.89-11.576 2.671-3.562 1.781-5.343 4.452-8.014 7.123-1.781 3.562-3.562 7.123-4.452 11.576s-0.89 9.795-0.89 15.137c0 13.357 1.781 22.261 6.233 28.494s9.795 8.904 16.028 8.904c7.123 0 12.466-2.671 16.028-8.904 2.671-6.233 4.452-14.247 4.452-24.932 0-0.89 0-1.781 0-2.671s0-1.781 0-3.562h-32.056zM147.812 250.323c-3.562 0-6.233-1.781-8.014-5.343s-2.671-8.904-2.671-15.137h19.59c0 6.233-0.89 11.576-1.781 15.137-0.89 2.671-3.562 5.343-7.123 5.343zM204.8 186.212c-4.452 0-8.014 0.89-11.576 2.671-2.671 1.781-5.343 4.452-7.123 8.014s-3.562 7.123-4.452 11.576c-0.89 4.452-0.89 8.904-0.89 14.247 0 11.576 1.781 20.48 6.233 27.603 3.562 6.233 9.795 9.795 17.809 9.795 2.671 0 4.452 0 6.233-0.89s3.562-1.781 5.343-2.671l-2.671-9.795c-2.671 1.781-5.343 2.671-8.904 2.671-4.452 0-8.014-1.781-9.795-6.233s-3.562-11.576-3.562-20.48c0-3.562 0-7.123 0.89-10.685 0-3.562 0.89-6.233 1.781-8.014 0.89-2.671 2.671-4.452 4.452-5.343 1.781-1.781 3.562-1.781 6.233-1.781 1.781 0 3.562 0 5.343 0.89s2.671 0.89 4.452 1.781l2.671-8.904c-1.781-0.89-3.562-1.781-5.343-2.671-1.781-1.781-4.452-1.781-7.123-1.781zM223.499 258.337h43.631v-9.795h-16.918v-60.55h-10.685v60.55h-16.918v9.795zM319.666 222.72c0-5.343-0.89-10.685-1.781-15.137s-2.671-8.014-4.452-11.576c-1.781-3.562-4.452-5.343-7.123-7.123s-6.233-2.671-10.685-2.671-7.123 0.89-10.685 2.671c-2.671 1.781-5.343 4.452-7.123 7.123-1.781 3.562-3.562 7.123-4.452 11.576s-1.781 9.795-1.781 15.137c0 5.343 0.89 10.685 1.781 15.137s2.671 8.014 4.452 11.576c1.781 3.562 4.452 5.343 7.123 7.123s6.233 2.671 10.685 2.671 7.123-0.89 10.685-2.671c2.671-1.781 5.343-4.452 7.123-7.123 1.781-3.562 3.562-7.123 4.452-11.576s1.781-9.795 1.781-15.137zM308.090 222.72c0 3.562 0 7.123-0.89 10.685 0 3.562-0.89 6.233-1.781 8.014-0.89 2.671-1.781 4.452-3.562 5.343s-3.562 1.781-5.343 1.781c-1.781 0-3.562-0.89-5.343-1.781s-2.671-3.562-3.562-5.343c-0.89-2.671-1.781-5.343-1.781-8.014 0-3.562-0.89-7.123-0.89-10.685s0-7.123 0.89-10.685c0-3.562 0.89-6.233 1.781-8.014 0.89-2.671 1.781-4.452 3.562-5.343s3.562-1.781 5.343-1.781c1.781 0 3.562 0.89 5.343 1.781s2.671 2.671 3.562 5.343c0.89 2.671 1.781 5.343 1.781 8.014 0.89 3.562 0.89 7.123 0.89 10.685zM345.489 163.061h-10.685v92.605c2.671 0.89 5.343 1.781 8.014 2.671s6.233 0.89 8.904 0.89c4.452 0 8.904-0.89 11.576-2.671 3.562-1.781 6.233-4.452 8.014-7.123 1.781-3.562 3.562-7.123 4.452-11.576s1.781-9.795 1.781-16.028c0-11.576-1.781-20.48-5.343-26.713s-9.795-9.795-17.809-9.795c-1.781 0-3.562 0-5.343 0.89-1.781 0-2.671 0.89-4.452 1.781v-24.932zM345.489 198.678c2.671-1.781 5.343-1.781 8.014-1.781 1.781 0 3.562 0.89 5.343 1.781s2.671 2.671 4.452 4.452c0.89 1.781 1.781 4.452 2.671 8.014s0.89 8.014 0.89 12.466c0 9.795-0.89 16.918-3.562 20.48-2.671 4.452-6.233 6.233-10.685 6.233-0.89 0-1.781 0-2.671 0s-1.781 0-3.562-0.89v-50.755zM395.353 256.557c1.781 0.89 4.452 1.781 7.123 2.671s5.343 0.89 8.014 0.89c6.233 0 10.685-1.781 14.247-6.233 3.562-3.562 5.343-9.795 5.343-17.809v-46.303c-2.671-0.89-6.233-1.781-8.904-1.781-3.562-0.89-6.233-0.89-8.904-0.89s-6.233 0-8.904 0.89c-2.671 0.89-5.343 1.781-7.123 3.562s-3.562 4.452-4.452 7.123c-0.89 2.671-1.781 6.233-1.781 9.795s0.89 7.123 1.781 9.795c0.89 2.671 2.671 5.343 4.452 7.123s4.452 3.562 6.233 4.452c2.671 0.89 5.343 1.781 8.014 1.781s6.233 0 8.904-0.89v6.233c0 5.343-0.89 8.904-2.671 10.685s-4.452 2.671-8.014 2.671c-1.781 0-3.562 0-5.343-0.89-1.781 0-3.562-0.89-5.343-1.781l-2.671 8.904zM399.805 208.473c0-4.452 0.89-7.123 2.671-8.904s4.452-2.671 8.904-2.671c2.671 0 4.452 0 7.123 0.89v22.261c-2.671 0.89-5.343 0.89-7.123 0.89s-2.671 0-4.452-0.89c-1.781 0-2.671-0.89-3.562-1.781s-1.781-1.781-2.671-3.562c0-1.781-0.89-4.452-0.89-6.233zM491.52 258.337v-70.344h-10.685v31.165h-20.48v-31.165h-10.685v70.344h10.685v-29.384h20.48v29.384h10.685zM527.137 196.897h6.233c1.781 3.562 3.562 8.014 4.452 12.466s1.781 8.904 2.671 14.247c0.89 5.343 0.89 10.685 0.89 16.028s0 11.576 0 18.699h33.837v-60.55h8.014v-28.494h-10.685v19.59h-36.508v-19.59h-10.685v27.603zM552.070 247.652c0-4.452 0-9.795 0-14.247s-0.89-8.904-0.89-13.357c-0.89-4.452-0.89-8.014-2.671-12.466-0.89-3.562-2.671-8.014-3.562-11.576h21.37v50.755h-14.247zM638.442 222.72c0-5.343-0.89-10.685-1.781-15.137s-2.671-8.014-4.452-11.576c-1.781-3.562-4.452-5.343-7.123-7.123s-6.233-2.671-10.685-2.671-7.123 0.89-10.685 2.671c-2.671 1.781-5.343 4.452-7.123 7.123-1.781 3.562-3.562 7.123-4.452 11.576s-1.781 9.795-1.781 15.137c0 5.343 0.89 10.685 1.781 15.137s2.671 8.014 4.452 11.576c1.781 3.562 4.452 5.343 7.123 7.123s6.233 2.671 10.685 2.671 7.123-0.89 10.685-2.671c2.671-1.781 5.343-4.452 7.123-7.123 1.781-3.562 3.562-7.123 4.452-11.576s1.781-9.795 1.781-15.137zM626.866 222.72c0 3.562 0 7.123-0.89 10.685 0 3.562-0.89 6.233-1.781 8.014-0.89 2.671-1.781 4.452-3.562 5.343s-3.562 1.781-5.343 1.781c-1.781 0-3.562-0.89-5.343-1.781s-2.671-3.562-3.562-5.343c-0.89-2.671-1.781-5.343-1.781-8.014 0-3.562-0.89-7.123-0.89-10.685s0-7.123 0.89-10.685c0-3.562 0.89-6.233 1.781-8.014 0.89-2.671 1.781-4.452 3.562-5.343s3.562-1.781 5.343-1.781c1.781 0 3.562 0.89 5.343 1.781s2.671 2.671 3.562 5.343c0.89 2.671 1.781 5.343 1.781 8.014 0.89 3.562 0.89 7.123 0.89 10.685zM674.059 186.212c-4.452 0-8.014 0.89-11.576 2.671-2.671 1.781-5.343 4.452-7.123 8.014s-3.562 7.123-4.452 11.576c-0.89 4.452-0.89 8.904-0.89 14.247 0 11.576 1.781 20.48 6.233 27.603 3.562 6.233 9.795 9.795 17.809 9.795 2.671 0 4.452 0 6.233-0.89s3.562-1.781 5.343-2.671l-2.671-9.795c-2.671 1.781-5.343 2.671-8.904 2.671-4.452 0-8.014-1.781-9.795-6.233s-3.562-11.576-3.562-20.48c0-3.562 0-7.123 0.89-10.685 0-3.562 0.89-6.233 1.781-8.014 0.89-2.671 2.671-4.452 4.452-5.343 1.781-1.781 3.562-1.781 6.233-1.781 1.781 0 3.562 0 5.343 0.89s2.671 0.89 4.452 1.781l2.671-8.904c-1.781-0.89-3.562-1.781-5.343-2.671-1.781-1.781-4.452-1.781-7.123-1.781zM692.758 258.337h43.631v-9.795h-16.918v-60.55h-10.685v60.55h-16.918v9.795zM746.184 256.557c1.781 0.89 4.452 1.781 7.123 2.671s5.343 0.89 8.014 0.89c6.233 0 10.685-1.781 14.247-6.233 3.562-3.562 5.343-9.795 5.343-17.809v-46.303c-2.671-0.89-6.233-1.781-8.904-1.781-3.562-0.89-6.233-0.89-8.904-0.89s-6.233 0-8.904 0.89c-2.671 0.89-5.343 1.781-7.123 3.562s-3.562 4.452-4.452 7.123c-0.89 2.671-1.781 6.233-1.781 9.795s0.89 7.123 1.781 9.795c0.89 2.671 2.671 5.343 4.452 7.123s4.452 3.562 6.233 4.452c2.671 0.89 5.343 1.781 8.014 1.781s6.233 0 8.904-0.89v6.233c0 5.343-0.89 8.904-2.671 10.685s-4.452 2.671-8.014 2.671c-1.781 0-3.562 0-5.343-0.89-1.781 0-3.562-0.89-5.343-1.781l-2.671 8.904zM751.527 208.473c0-4.452 0.89-7.123 2.671-8.904s4.452-2.671 8.904-2.671c2.671 0 4.452 0 7.123 0.89v22.261c-2.671 0.89-5.343 0.89-7.123 0.89s-2.671 0-4.452-0.89c-1.781 0-2.671-0.89-3.562-1.781s-1.781-1.781-2.671-3.562c-0.89-1.781-0.89-4.452-0.89-6.233zM818.31 186.212c-3.562 0-7.123 0-10.685 0.89s-6.233 0.89-8.014 1.781v67.673c1.781 0.89 5.343 1.781 8.014 1.781 3.562 0.89 7.123 0.89 10.685 0.89 2.671 0 5.343 0 8.014-0.89s5.343-1.781 7.123-3.562c1.781-1.781 3.562-3.562 4.452-6.233s1.781-5.343 1.781-8.904c0-3.562-0.89-7.123-2.671-9.795s-3.562-4.452-6.233-6.233c2.671-0.89 5.343-3.562 8.014-6.233 1.781-2.671 3.562-6.233 3.562-10.685s-0.89-7.123-1.781-9.795c-0.89-2.671-2.671-4.452-5.343-6.233s-4.452-2.671-8.014-3.562c-1.781 0-5.343-0.89-8.904-0.89zM817.419 250.323c-1.781 0-4.452 0-7.123-0.89v-21.37h7.123c3.562 0 6.233 0.89 8.904 2.671 1.781 1.781 2.671 4.452 2.671 8.904 0 2.671 0 4.452-0.89 6.233s-1.781 2.671-2.671 3.562c-0.89 0.89-2.671 1.781-3.562 1.781-1.781-0.89-2.671-0.89-4.452-0.89zM810.296 219.158v-23.151c2.671-0.89 5.343-0.89 8.014-0.89 3.562 0 6.233 0.89 8.904 2.671s3.562 4.452 3.562 8.904c0 4.452-0.89 8.014-3.562 9.795s-5.343 2.671-9.795 2.671h-7.123zM898.449 258.337c-3.562-6.233-7.123-12.466-9.795-17.809-3.562-5.343-6.233-10.685-9.795-15.137 1.781-2.671 4.452-5.343 6.233-8.014 1.781-3.562 4.452-6.233 6.233-9.795s3.562-7.123 5.343-9.795c1.781-3.562 2.671-6.233 4.452-9.795h-11.576c-0.89 2.671-2.671 6.233-4.452 8.904-1.781 3.562-3.562 6.233-5.343 9.795-1.781 2.671-3.562 6.233-5.343 8.904s-3.562 5.343-5.343 7.123v-34.727h-10.685v70.344h10.685v-30.275c1.781 1.781 3.562 4.452 4.452 7.123 1.781 2.671 3.562 5.343 5.343 8.014s3.562 5.343 4.452 8.014c1.781 2.671 2.671 4.452 3.562 7.123h11.576zM952.765 258.337v-70.344h-9.795v50.755c-1.781-3.562-3.562-7.123-6.233-11.576-1.781-4.452-4.452-8.904-6.233-13.357s-4.452-8.904-6.233-13.357c-1.781-4.452-3.562-8.014-4.452-11.576h-8.904v70.344h9.795v-46.303c1.781 3.562 3.562 8.014 5.343 11.576 1.781 4.452 4.452 8.014 6.233 12.466s4.452 8.014 6.233 11.576c1.781 3.562 3.562 7.123 5.343 9.795h8.904zM1006.191 220.049c0-7.377-5.581-13.357-12.466-13.357s-12.466 5.98-12.466 13.357c0 7.377 5.581 13.357 12.466 13.357s12.466-5.98 12.466-13.357zM36.508 220.049c0-7.377-5.581-13.357-12.466-13.357s-12.466 5.98-12.466 13.357c0 7.377 5.581 13.357 12.466 13.357s12.466-5.98 12.466-13.357zM496.863 645.677l-6.233 5.343c-2.671 1.781-3.562 5.343-3.562 8.014 0 3.562 1.781 6.233 3.562 8.014 8.014 6.233 13.357 16.918 13.357 27.603s-4.452 21.37-12.466 28.494c-5.343 4.452-12.466 3.562-16.918-1.781s-2.671-13.357 2.671-17.809c2.671-2.671 3.562-6.233 3.562-8.014s-0.89-5.343-3.562-8.014c-8.904-7.123-14.247-16.918-14.247-28.494s4.452-21.37 12.466-28.494l6.233-5.343c2.671-1.781 5.343-2.671 8.014-2.671 3.562 0 7.123 1.781 9.795 4.452 3.562 6.233 2.671 14.247-2.671 18.699zM547.617 639.443l-7.123 6.233c-3.562 2.671-5.343 7.123-5.343 11.576s1.781 8.014 5.343 10.685c8.904 7.123 14.247 18.699 15.137 31.165 0 12.466-4.452 24.042-13.357 32.056-5.343 4.452-12.466 3.562-16.918-1.781s-3.562-13.357 1.781-18.699c2.671-2.671 4.452-7.123 4.452-11.576s-1.781-8.014-5.343-10.685c-8.904-7.123-15.137-18.699-15.137-31.165s5.343-24.042 14.247-32.056l7.123-6.233c2.671-1.781 5.343-2.671 8.014-2.671 3.562 0 7.123 1.781 9.795 4.452 3.562 5.343 2.671 14.247-2.671 18.699zM596.591 645.677l-6.233 5.343c-2.671 1.781-3.562 5.343-3.562 8.014 0 3.562 1.781 6.233 3.562 8.014 8.014 6.233 13.357 16.918 13.357 27.603s-4.452 21.37-12.466 28.494c-5.343 4.452-12.466 3.562-16.918-1.781s-3.562-13.357 1.781-18.699c2.671-2.671 3.562-6.233 3.562-8.014s-0.89-5.343-3.562-8.014c-8.014-7.123-13.357-16.918-13.357-28.494s4.452-21.37 12.466-28.494l6.233-5.343c2.671-1.781 5.343-2.671 8.014-2.671 3.562 0 7.123 1.781 9.795 4.452 3.562 7.123 2.671 15.137-2.671 19.59z" />
<glyph unicode="&#xe908;" glyph-name="salad" d="M1024 473.6c0 25.6-19.2 44.8-44.8 44.8h-6.4c-19.2 102.4-102.4 185.6-211.2 204.8-19.2 121.6-121.6 211.2-249.6 211.2s-230.4-89.6-249.6-211.2c-108.8-19.2-192-102.4-211.2-204.8h-6.4c-25.6 0-44.8-19.2-44.8-44.8 0-185.6 96-345.6 243.2-435.2-6.4-6.4-12.8-19.2-12.8-32 0-25.6 19.2-44.8 44.8-44.8h467.2c25.6 0 44.8 19.2 44.8 44.8 0 12.8-6.4 19.2-12.8 32 153.6 89.6 249.6 249.6 249.6 435.2zM300.8 633.6c25.6 0 44.8 19.2 44.8 44.8 6.4 89.6 76.8 166.4 166.4 166.4s160-70.4 160-160c0-25.6 19.2-44.8 44.8-44.8 76.8 0 134.4-51.2 153.6-115.2h-224c19.2 12.8 25.6 44.8 6.4 64-12.8 19.2-44.8 25.6-64 6.4l-32-32v102.4c0 25.6-19.2 44.8-44.8 44.8s-44.8-19.2-44.8-44.8v-102.4l-38.4 32c-19.2 12.8-51.2 12.8-64-6.4s-12.8-51.2 6.4-64v0h-224c19.2 57.6 83.2 108.8 153.6 108.8zM512 51.2c-217.6 0-390.4 166.4-416 371.2h416c0 0 0 0 0 0s0 0 0 0 0 0 0 0 0 0 0 0h416c-25.6-204.8-198.4-371.2-416-371.2z" />
<glyph unicode="&#xe909;" glyph-name="shopping-cart" d="M24.2 896.6l107.4-26.8 92.4-585.8v-0.4l0.2-0.6c0.4-1.8 1.2-3.4 1.8-5 0.6-1.8 1-3.8 1.8-5.4 1-1.8 2.6-3.2 4-4.8 1.2-1.4 2-2.8 3.2-3.8 1.6-1.4 3.8-2.4 5.8-3.4 1.4-0.8 2.4-1.6 3.8-2.2 3.6-1.4 7.4-2 11.2-2h599.2l-16-64h-647c-17.6 0-32-14.4-32-32s14.2-32 32-32h672.2c4 0 7.8 0.8 11.4 2.2 1.2 0.6 2.2 1.2 3.4 1.8 2.2 1.2 4.2 2.4 6.2 4.2 1 1 2 2.2 3 3.2 1.6 1.8 2.8 3.8 4 5.8 0.8 1.4 1.4 2.8 2 4.4 0.4 0.8 0.8 1.6 1.2 2.6l32 127.8 96 383.6c1 4.4 1 8.8 0.4 13-0.2 1.2-0.8 2.2-1.2 3.2-0.8 3-1.8 6-3.6 8.8-0.2 0.2-0.2 0.6-0.4 0.8-0.8 1-2 1.6-2.8 2.6-1.8 2-3.6 4-5.8 5.6-1.6 1-3.2 1.6-5.2 2.4-1.6 0.8-3 1.8-4.8 2.2-0.8 0.2-1.4 0-2.2 0-0.6 0.2-1.2 0.6-1.8 0.6l-788.2 94.8-16.2 102.6c-2 12.6-11.4 22.8-23.8 26l-128 32c-17.2 4.4-34.6-6.2-38.8-23.2-4.4-17.2 6-34.6 23.2-38.8zM805 320.2l48.2 336.2 99.2-11.8-81.2-324.4h-66.2zM673.6 320.2l16.2 355.6 99.8-12-49.2-343.6h-66.8zM526.4 695.4l99.6-12-16.6-363.4h-66.8l-16.2 375.4zM362.8 715l99.2-11.8 16.6-383h-66.2l-49.6 394.8zM229.2 731l68.2-8.2 50.4-402.8h-63.8l-54.8 411zM672.2 0.4c0-35.2 28.6-64 64-64s64 28.6 64 64-28.8 64-64 64c-35.4 0-64-28.8-64-64zM256 0.4c0-35.2 28.8-64 64-64 35.4 0 64 28.6 64 64s-28.6 64-64 64c-35.4 0-64-28.8-64-64z" />
<glyph unicode="&#xe90a;" glyph-name="soup" d="M1024 448c0 25.6-19.2 44.8-44.8 44.8h-934.4c-25.6 0-44.8-19.2-44.8-44.8 0-185.6 96-345.6 243.2-435.2-6.4-6.4-12.8-19.2-12.8-32 0-25.6 25.6-44.8 51.2-44.8h467.2c25.6 0 44.8 19.2 44.8 44.8 0 12.8-6.4 19.2-12.8 32 147.2 89.6 243.2 249.6 243.2 435.2v0zM512 32c-217.6 0-390.4 166.4-416 371.2h832c-25.6-211.2-198.4-371.2-416-371.2v0zM294.4 633.6c0-25.6 19.2-44.8 44.8-44.8s44.8 19.2 44.8 44.8c0 64-32 102.4-57.6 128-19.2 19.2-32 32-32 57.6s12.8 38.4 32 57.6c19.2 19.2 19.2 44.8 0 64s-44.8 19.2-64 0c-25.6-25.6-57.6-57.6-57.6-128 0-64 32-102.4 57.6-128 19.2-12.8 32-25.6 32-51.2v0zM512 633.6c0-25.6 19.2-44.8 44.8-44.8s44.8 19.2 44.8 44.8c0 64-32 102.4-57.6 128-19.2 19.2-32 32-32 57.6s12.8 38.4 32 57.6c19.2 19.2 19.2 44.8 0 64s-44.8 19.2-64 0c-25.6-25.6-57.6-57.6-57.6-128 0-64 32-102.4 57.6-128 19.2-12.8 32-25.6 32-51.2v0zM729.6 633.6c0-25.6 19.2-44.8 44.8-44.8s44.8 19.2 44.8 44.8c0 64-32 102.4-57.6 128s-32 32-32 57.6c0 25.6 12.8 38.4 32 57.6s19.2 44.8 0 64c-19.2 19.2-44.8 19.2-64 0-25.6-25.6-57.6-57.6-57.6-128 0-64 32-102.4 57.6-128 19.2-12.8 32-25.6 32-51.2v0z" />
<glyph unicode="&#xe90b;" glyph-name="substract" d="M981.333 490.667h-938.667c-25.6 0-42.667-17.067-42.667-42.667s17.067-42.667 42.667-42.667h938.667c25.6 0 42.667 17.067 42.667 42.667s-17.067 42.667-42.667 42.667z" />
</font></defs></svg>